2023-07-16 21:07:25	admin	http://localhost/processwire/processwire/page/edit/?id=1015&InputfieldFileAjax=1	GD Resized: api.jpg => api.0x260.jpg (0x260) 0.1764 secs 218901 => 44626 bytes (quality=90, sharpening=soft)
2023-07-18 19:43:49	admin	http://localhost/processwire/processwire/page/edit/?id=1017&InputfieldFileAjax=1	GD Resized: badges.png => badges.0x260.png (0x260) 0.2074 secs 1395199 => 210056 bytes (quality=90, sharpening=soft)
2023-07-18 19:43:58	admin	http://localhost/processwire/processwire/page/edit/?id=1017&InputfieldFileAjax=1	/processwire/site/assets/files/1017/pois.260x0.png - pois.260x0.png - not a supported image type
2023-07-18 19:44:03	admin	http://localhost/processwire/processwire/page/edit/?id=1017&s=1&c=1	/processwire/site/assets/files/1017/pois.260x0.png - pois.260x0.png - not a supported image type
2023-07-18 19:44:14	admin	http://localhost/processwire/processwire/page/edit/?id=1017&InputfieldFileAjax=1	GD Resized: badges.png => badges.0x260.png (0x260) 0.1893 secs 1395199 => 210056 bytes (quality=90, sharpening=soft)
2023-07-18 19:44:42	admin	http://localhost/processwire/processwire/page/edit/?id=1017&InputfieldFileAjax=1	GD Resized: api.jpg => api.0x260.jpg (0x260) 0.1951 secs 218901 => 44626 bytes (quality=90, sharpening=soft)
2023-07-18 19:46:05	admin	http://localhost/processwire/processwire/page/edit/?id=1018&InputfieldFileAjax=1	GD Resized: lgcs.png => lgcs.0x260.png (0x260) 0.0653 secs 18895 => 18524 bytes (quality=90, sharpening=soft)
2023-07-23 20:36:28	admin	http://localhost/processwire/processwire/page/edit/?id=1041&InputfieldFileAjax=1	GD Resized: api.jpg => api.0x260.jpg (0x260) 0.1755 secs 218901 => 44626 bytes (quality=90, sharpening=soft)
2023-07-25 22:34:51	admin	http://localhost/processwire/processwire/page/edit/?id=1044&InputfieldFileAjax=1	GD Resized: d73b54ff0ea1893badd173396c4178d5.jpg => d73b54ff0ea1893badd173396c4178d5.0x260.jpg (0x260) 0.0397 secs 24895 => 34255 bytes (quality=90, sharpening=soft)
2023-07-25 22:34:52	admin	http://localhost/processwire/processwire/page/edit/?id=1044&InputfieldFileAjax=1	GD Resized: 23305f8b60b16fc07d84d566f6601659.jpg => 23305f8b60b16fc07d84d566f6601659.260x0.jpg (260x0) 0.0760 secs 121219 => 42943 bytes (quality=90, sharpening=soft)
